{
   "type":"FeatureCollection",
   "features":[
      {
         "geometry":{
            "type":"Point",
            "coordinates":[
               -6.1512032,
               53.4175924
            ]
         },
         "type":"Feature",
         "id":0,
         "properties":{
            "address":"Station Road, Portmarnock"
         }
      },
      {
         "geometry":{
            "type":"Point",
            "coordinates":[
               -6.0681078,
               53.3889232
            ]
         },
         "type":"Feature",
         "id":1,
         "properties":{
            "address":"Howth"
         }
      },
      {
         "geometry":{
            "type":"Point",
            "coordinates":[
               -6.4512692,
               53.3025043
            ]
         },
         "type":"Feature",
         "id":2,
         "properties":{
             "address":"Casement Aerodrome"
          }
      },
      {
         "geometry":{
            "type":"Point",
            "coordinates":[
               -6.109551,
               53.203322
            ]
         },
         "type":"Feature",
         "id":3,
         "properties":{
             "address":"Bray"
          }
      }
   ]
}